<?xml version="1.0" standalone="no"?>
<!DOCTYPE svg PUBLIC "-//W3C//DTD SVG 1.1//EN" "http://www.w3.org/Graphics/SVG/1.1/DTD/svg11.dtd" >
<!--
2018-4-5: Created with FontForge (http://fontforge.org)
-->
<svg xmlns="http://www.w3.org/2000/svg" xmlns:xlink="http://www.w3.org/1999/xlink" version="1.1">
<metadata>
Created by FontForge 20160405 at Thu Apr  5 15:38:53 2018
 By Apache
Copyright (c) 2018, Apache
</metadata>
<defs>
<font id="Flaticon" horiz-adv-x="512" >
  <font-face 
    font-family="Flaticon"
    font-weight="400"
    font-stretch="normal"
    units-per-em="512"
    panose-1="2 0 5 3 0 0 0 0 0 0"
    ascent="448"
    descent="-64"
    bbox="-0.000630019 -64.0127 512 448.001"
    underline-thickness="25.6"
    underline-position="-51.2"
    unicode-range="U+0020-F115"
  />
    <missing-glyph />
    <glyph glyph-name="space" unicode=" " horiz-adv-x="200" 
 />
    <glyph glyph-name="uniF110" unicode="&#xf110;" 
d="M367.551 436.357c79.6494 0 144.449 -64.7988 144.449 -144.449c0 -62.3701 -37.1914 -134.512 -110.539 -214.418c-56.4463 -61.4932 -117.852 -109.104 -135.325 -122.233l-10.1387 -7.61621l-10.1396 7.61719c-17.4736 13.1289 -78.877 60.7412 -135.321 122.234
c-73.3457 79.9072 -110.536 152.047 -110.536 214.416c0 79.6504 64.7998 144.449 144.449 144.449c43.5869 0 84.3857 -19.7324 111.551 -52.7979c27.165 33.0645 67.9658 52.7979 111.551 52.7979zM376.591 100.319c66.501 72.4453 101.651 138.695 101.651 191.589
c0 61.0361 -49.6562 110.691 -110.691 110.691c-40.167 0 -77.2539 -21.8926 -96.7881 -57.1309l-14.7627 -26.6309l-14.7627 26.6309c-19.5361 35.2402 -56.6221 57.1309 -96.7881 57.1309c-61.0352 0 -110.691 -49.6562 -110.691 -110.691
c0 -52.8906 35.1494 -119.142 101.647 -191.588c46.4277 -50.5791 96.375 -91.4668 120.592 -110.311c24.2168 18.8438 74.166 59.7305 120.594 110.31z" />
    <glyph glyph-name="uniF10C" unicode="&#xf10c;" 
d="M363.71 448c20.5791 0 37.2588 -16.7168 37.2588 -37.2969v-437.444c0 -20.5605 -16.6797 -37.2588 -37.2588 -37.2588h-215.42c-20.6162 0 -37.2588 16.6982 -37.2588 37.2588v437.444c0 20.5801 16.6426 37.2969 37.2588 37.2969h215.42zM202.845 425.35
c-2.70508 0 -4.85059 -4.01074 -4.85059 -8.97461c0 -4.96289 2.14551 -8.99219 4.85059 -8.99219h106.348c2.68652 0 4.87012 4.0293 4.87012 8.99219c0 4.96387 -2.18359 8.97461 -4.87012 8.97461h-106.348zM256.019 -27.1885c13.0791 0 23.751 10.6719 23.751 23.8066
s-10.6719 23.7695 -23.751 23.7695c-13.1162 0 -23.7881 -10.6348 -23.7881 -23.7695s10.6719 -23.8066 23.7881 -23.8066zM373.058 54.3262v330.742h-234.097v-330.742h234.097z" />
    <glyph glyph-name="uniF100" unicode="&#xf100;" 
d="M128 159.6v64h384v-64h-384zM0 160.398v64.001h64.001v-64.001h-64.001zM128 -32.4014v64.001h384v-64.001h-384zM0 -31.6016v64.001h64.001v-64.001h-64.001zM128 351.6v64h384v-64h-384zM0 352.398v64.001h64.001v-64.001h-64.001z" />
    <glyph glyph-name="uniF10B" unicode="&#xf10b;" 
d="M449.496 386.82c34.5361 0 62.6094 -28.1797 62.5039 -62.7148v-264.316c0 -34.5361 -28.0732 -62.6094 -62.6094 -62.6094h-386.781c-34.5361 0 -62.6094 28.0732 -62.6094 62.6094v264.422c0 34.5361 28.0732 62.6094 62.6094 62.6094h386.887zM483.503 59.7891
h-0.106445v264.316c0 18.751 -15.2549 34.0059 -34.0059 34.0059h-386.781c-18.751 0 -34.0059 -15.2549 -34.0059 -34.0059v-264.316c0 -18.751 15.2549 -34.0059 34.0059 -34.0059h386.887c18.751 0 34.0068 15.2549 34.0068 34.0059zM322.9 195.284l125.748 -119.393
c5.7207 -5.40332 5.93262 -14.5137 0.530273 -20.2344c-2.86035 -2.96582 -6.56836 -4.44922 -10.3818 -4.44922c-3.49609 0 -7.09766 1.27148 -9.85254 3.91992l-127.338 120.981l-35.7012 -31.9932c-2.64844 -2.43652 -6.14453 -3.70801 -9.53418 -3.70801
c-3.39062 0 -6.78027 1.16504 -9.53516 3.60156l-34.7471 31.04l-128.08 -119.816c-2.75391 -2.54199 -6.25 -3.81348 -9.74609 -3.81348c-3.81348 0 -7.62793 1.58887 -10.4883 4.55566c-5.40234 5.82617 -5.08496 14.8311 0.635742 20.2334l126.173 118.122
l-126.702 113.248c-5.93262 5.29688 -6.46191 14.3018 -1.16504 20.2334c5.29688 5.93262 14.3018 6.46289 20.2344 1.16602l137.084 -122.677c0.847656 -0.635742 1.58887 -1.27148 2.33008 -2.0127c0 -0.106445 0.106445 -0.211914 0.211914 -0.318359l33.6885 -30.0859
l172.68 154.987c5.93262 5.29688 14.9375 4.76758 20.2344 -1.05957c5.29688 -5.93164 4.7666 -14.9365 -1.05957 -20.2334z" />
    <glyph glyph-name="uniF10F" unicode="&#xf10f;" 
d="M483.667 309.173c18.5352 -35.9443 28.3311 -76.4609 28.3311 -117.172c0 -141.158 -114.841 -255.999 -255.999 -255.999s-255.999 114.841 -255.999 255.999s114.841 255.999 255.999 255.999c5.75293 0 10.4189 -4.66602 10.4189 -10.4189
s-4.66602 -10.4189 -10.4189 -10.4189c-129.667 0 -235.161 -105.492 -235.161 -235.161s105.494 -235.163 235.161 -235.163c129.668 0 235.161 105.494 235.161 235.161c0 37.9395 -8.75195 74.1475 -26.0127 107.622c-16.4746 31.9473 -40.498 60.1582 -69.4746 81.5869
c-4.62695 3.42285 -5.60547 9.94727 -2.18359 14.5732c3.42285 4.62598 9.94531 5.60352 14.5732 2.18262c31.5312 -23.3174 57.6768 -54.0215 75.6045 -88.791zM190.494 310.869c3.25781 1.85254 7.25488 1.81055 10.4785 -0.104492l184.46 -109.809
c3.09961 -1.8457 5.02344 -5.16309 5.08789 -8.76953c0.0634766 -3.60645 -1.74219 -6.98926 -4.77441 -8.94336l-127.573 -82.1943c-4.83789 -3.11816 -11.2832 -1.72266 -14.4023 3.11523c-3.11719 4.83691 -1.7207 11.2842 3.11523 14.4014l113.437 73.085
l-154.26 91.832v-210.325c0 -5.75488 -4.66602 -10.4189 -10.4199 -10.4189c-5.75293 0 -10.4189 4.66406 -10.4189 10.4189v228.654c0 3.74512 2.0127 7.2041 5.27051 9.05762z" />
    <glyph glyph-name="uniF107" unicode="&#xf107;" 
d="M512 350.752c-14.2725 -21.248 -31.7764 -39.7119 -52.6084 -54.4961c0.224609 -4.44824 0.384766 -8.92773 0.384766 -13.5674c0 -138.688 -105.601 -298.688 -298.752 -298.688c-59.4248 0 -114.528 17.1201 -161.024 47.1035
c8.25586 -1.05566 16.5117 -1.43945 25.1201 -1.43945c49.0879 0 94.4316 16.832 130.144 44.7676c-45.8877 0.992188 -84.4795 31.5527 -98.0801 73.1201c6.36816 -1.4082 13.1523 -1.79199 19.8721 -1.79199c9.66406 0 18.9766 1.12012 27.5205 3.45605
c-47.7119 9.75977 -84.0957 52.1279 -84.0957 103.136v1.15234c14.0156 -7.71191 30.5596 -12.6074 47.4238 -12.9277c-27.9043 18.6562 -46.624 50.8799 -46.624 87.2314c0 19.3604 5.31152 37.3447 14.3682 53.0566c51.8711 -63.7119 129.088 -105.536 216.352 -109.792
c-1.72754 7.61621 -2.43164 15.6162 -2.43164 23.9355c0 57.8242 46.7832 104.992 104.896 104.992c29.9521 0 57.4082 -12.7041 76.6719 -33.2158c23.8721 4.76758 46.2725 13.3115 66.5605 25.4082c-7.80859 -24.6084 -24.416 -45.0244 -46.1768 -58.0166
c21.1523 2.68848 41.4404 8.22461 60.4805 16.5762z" />
    <glyph glyph-name="uniF101" unicode="&#xf101;" 
d="M512 384v-42.667c0 -12.7998 -8.5332 -21.333 -21.333 -21.333h-469.334c-12.7998 0 -21.333 8.5332 -21.333 21.333v42.667c0 12.7998 8.5332 21.333 21.333 21.333h469.334c12.7998 0 21.333 -8.5332 21.333 -21.333zM512 213.333v-42.666
c0 -12.8008 -8.5332 -21.334 -21.333 -21.334h-469.334c-12.7998 0 -21.333 8.5332 -21.333 21.334v42.666c0 12.8008 8.5332 21.334 21.333 21.334h469.334c12.7998 0 21.333 -8.5332 21.333 -21.334zM512 42.667v-42.667c0 -12.7998 -8.5332 -21.333 -21.333 -21.333
h-469.334c-12.7998 0 -21.333 8.5332 -21.333 21.333v42.667c0 12.7998 8.5332 21.333 21.333 21.333h469.334c12.7998 0 21.333 -8.5332 21.333 -21.333z" />
    <glyph glyph-name="uniF109" unicode="&#xf109;" 
d="M256 -38.9951c-127.404 0 -230.995 103.591 -230.995 230.995s103.591 230.995 230.995 230.995s230.995 -103.591 230.995 -230.995s-103.591 -230.995 -230.995 -230.995zM256 390.449c-109.544 0 -198.449 -89.3018 -198.449 -198.449
s88.9053 -198.449 198.449 -198.449s198.449 88.9053 198.449 198.449s-88.9053 198.449 -198.449 198.449zM210.754 72.9307c-6.35059 2.77832 -10.3193 8.73145 -10.3193 15.082v210.356c0 6.74707 3.96875 12.7002 9.92188 15.082
c6.35059 2.38184 13.0977 1.19043 17.8604 -3.57227l105.179 -105.178c3.1748 -2.77832 4.7627 -7.14453 4.7627 -11.5107c0 -4.36523 -1.58789 -8.33496 -4.7627 -11.5098l-104.781 -105.179c-3.17578 -3.1748 -7.14453 -4.7627 -11.5107 -4.7627
c-2.38086 0 -4.36523 0.397461 -6.34961 1.19141zM232.979 259.076v-131.771l65.8857 65.8848z" />
    <glyph glyph-name="uniF113" unicode="&#xf113;" 
d="M495.643 -18.3506c10.3086 -10.7227 9.9668 -27.8174 -0.746094 -38.127c-5.04199 -4.85352 -11.6846 -7.52246 -18.6855 -7.52246c-7.39746 0 -14.2998 2.93945 -19.4316 8.26855l-122.783 127.699c-34.8633 -24.501 -75.6416 -37.4072 -118.433 -37.4072
c-113.983 0 -206.72 92.7363 -206.72 206.72s92.7363 206.72 206.72 206.72s206.72 -92.7363 206.72 -206.72c0 -48.7861 -17.166 -95.6484 -48.498 -132.894zM215.563 394.073c-84.252 0 -152.793 -68.541 -152.793 -152.793s68.541 -152.793 152.793 -152.793
s152.793 68.541 152.793 152.793s-68.541 152.793 -152.793 152.793z" />
    <glyph glyph-name="uniF10A" unicode="&#xf10a;" 
d="M354.2 200.6c8.2998 -6.5 3.5 -15.0996 0 -17.1992l-135.101 -92.4004c-3.89941 -3.2998 -15.2998 -3.09961 -16.2998 8.59961v184.801c0.900391 11.6992 12.1006 11.6992 16.2998 8.59961zM223.7 119.3l106.1 72.7002l-106.1 72.7002v-145.4zM256 437
c135.1 0 245 -109.9 245 -245s-109.9 -245 -245 -245s-245 109.9 -245 245s109.9 245 245 245zM256 -32.0996c123.6 0 224.1 100.5 224.1 224.1s-100.5 224.1 -224.1 224.1s-224.1 -100.5 -224.1 -224.1s100.5 -224.1 224.1 -224.1z" />
    <glyph glyph-name="uniF111" unicode="&#xf111;" 
d="M474.644 373.73c24.0898 -27.3359 37.3564 -63.9434 37.3564 -103.081c0 -42.6035 -16.6328 -82.2275 -52.3447 -124.7c-31.917 -37.9609 -77.834 -77.0889 -131.002 -122.396c-19.8164 -16.8867 -40.3057 -34.3457 -62.1182 -53.4307l-0.655273 -0.574219
c-2.82812 -2.47461 -6.35352 -3.71289 -9.87988 -3.71289s-7.05176 1.2373 -9.87988 3.71289l-0.655273 0.574219c-21.8125 19.085 -42.3018 36.5449 -62.1152 53.4287c-53.1709 45.3096 -99.0879 84.4375 -131.005 122.397
c-35.7119 42.4717 -52.3447 82.0967 -52.3447 124.7c0 39.1377 13.2666 75.7451 37.3555 103.079c25.2539 28.6543 60.2861 44.4355 98.6445 44.4355c53.9482 0 88.1025 -32.2197 107.255 -59.25c4.96973 -7.01367 9.19629 -14.0469 12.7451 -20.665
c3.54883 6.61816 7.77637 13.6514 12.7451 20.665c19.1523 27.0303 53.3066 59.25 107.255 59.25c38.3584 0 73.3906 -15.7803 98.6436 -44.4336zM309.193 46.3857c104.062 88.6748 172.807 147.256 172.807 224.264c0 31.8291 -10.6055 61.3936 -29.8633 83.2441
c-19.4766 22.0996 -46.5156 34.2705 -76.1367 34.2705c-41.1289 0 -67.7158 -25.3379 -82.7764 -46.5928c-13.5088 -19.0654 -20.5576 -38.2832 -22.9619 -45.6602c-2.01074 -6.1748 -7.76758 -10.3545 -14.2617 -10.3545s-12.251 4.17969 -14.2617 10.3545
c-2.4043 7.37695 -9.45312 26.5947 -22.9619 45.6592c-15.0605 21.2559 -41.6475 46.5938 -82.7764 46.5938c-29.6211 0 -56.6602 -12.1709 -76.1377 -34.2705c-19.2568 -21.8506 -29.8623 -51.415 -29.8623 -83.2441c0 -77.0078 68.7451 -135.589 172.804 -224.262
c17.083 -14.5566 34.6621 -29.5371 53.1963 -45.6475c18.5352 16.1123 36.1133 31.0918 53.1934 45.6455z" />
    <glyph glyph-name="uniF10D" unicode="&#xf10d;" 
d="M256 448c99.252 0 180 -80.748 180 -180c0 -32.5391 -8.7793 -64.4277 -25.3887 -92.2197l-139.243 -232.488c-2.6875 -4.48828 -7.51953 -7.25098 -12.75 -7.29199h-0.119141c-5.18555 0 -10.0078 2.67969 -12.7451 7.09082l-142.885 230.257
c-17.5801 28.3926 -26.8691 61.1182 -26.8691 94.6523c0 99.252 80.748 180 180 180zM384.866 191.182c13.8232 23.1299 21.2334 49.6973 21.2334 76.8184c0 82.71 -67.3896 150.2 -150.1 150.2s-150.2 -67.4902 -150.2 -150.2
c0 -27.9502 7.93457 -55.2139 22.5674 -78.8457l129.905 -209.34zM256 358c49.626 0 90 -40.374 90 -90c0 -48.7666 -39.0967 -90 -90 -90c-50.2832 0 -90 40.6914 -90 90c0 49.626 40.374 90 90 90zM256 207.8c33.7842 0 60.0996 27.5176 60.0996 60.2002
c0 33.084 -27.0156 60.2002 -60.0996 60.2002s-60.2002 -27.1162 -60.2002 -60.2002c0 -33.167 26.9434 -60.2002 60.2002 -60.2002z" />
    <glyph glyph-name="uniF102" unicode="&#xf102;" 
d="M510.576 183.464c4.38184 -11.8457 -1.69043 -25.0488 -13.5332 -29.4316h-0.000976562l-284.918 -105.406c-2.59082 -0.958984 -5.2793 -1.43457 -7.96094 -1.43457c-3.25977 0 -6.50879 0.703125 -9.55957 2.10645c-5.55957 2.55762 -9.79004 7.125 -11.9121 12.8643
l-58.4316 157.939c-2.12305 5.73828 -1.88379 11.96 0.671875 17.5195c2.55762 5.55762 7.125 9.78906 12.8643 11.9121l284.917 105.406c5.73926 2.12402 11.96 1.88379 17.5195 -0.672852c5.55957 -2.55566 9.79102 -7.12402 11.9121 -12.8623zM407.052 324.721
l-237.704 -87.9385l149.327 -38.4053zM200.044 81.2686l66.6992 106.809l-117.382 30.1914zM224.863 77.7627l243.54 90.0986l-117.369 36.8174l-18.1328 -25.9434c-2.17676 -3.10449 -5.7041 -4.8916 -9.39258 -4.8916c-0.938477 0 -1.90039 0.125977 -2.85156 0.367188
l-30.6426 7.88184zM364.814 224.362l120.166 -37.6953l-50.7031 137.019zM133.44 59.0244c2.19434 -5.93359 -0.833984 -12.5225 -6.76953 -14.7158l-43.1602 -15.9678c-1.30957 -0.484375 -2.65332 -0.714844 -3.97266 -0.714844
c-4.65723 0 -9.0332 2.85938 -10.7432 7.48242c-2.19434 5.93164 0.834961 12.5195 6.76855 14.7158l43.1611 15.9678c5.92969 2.19336 12.5215 -0.834961 14.7158 -6.76758zM75.0234 165.354c2.19434 -5.93262 -0.834961 -12.5215 -6.76855 -14.7148l-26.6426 -9.85645
c-1.31055 -0.485352 -2.6543 -0.714844 -3.97363 -0.714844c-4.65527 0 -9.03223 2.85938 -10.7422 7.48145c-2.19434 5.93359 0.834961 12.5205 6.76758 14.7158l26.6426 9.85742c5.93164 2.19238 12.5205 -0.834961 14.7168 -6.76855zM41.9951 78.5918
c2.19531 -5.93262 -0.833984 -12.5205 -6.76855 -14.7148l-19.7969 -7.32422c-1.30957 -0.484375 -2.65332 -0.714844 -3.97266 -0.714844c-4.65723 0 -9.0332 2.86035 -10.7432 7.48242c-2.19434 5.93164 0.834961 12.5195 6.76855 14.7158l19.7969 7.32422
c5.93066 2.19336 12.5195 -0.834961 14.7158 -6.76855z" />
    <glyph glyph-name="uniF103" unicode="&#xf103;" 
d="M91.7676 238.727c1.84863 -3.35156 2.67188 -7.55664 2.68164 -12.5635c0 -11.4365 -4.70312 -20.6699 -14.2402 -27.6572c-9.48633 -6.97852 -22.6904 -10.4619 -39.7441 -10.4824h-3.99121c-3.05762 0 -6.04395 -2.40723 -6.68359 -5.29199l-4.78418 -20.7197
c-0.669922 -2.95605 -3.66602 -5.30176 -6.69336 -5.30176h-13.9453c-3.02637 0 -4.92578 2.41699 -4.21484 5.30176l19.5928 85.3389c0.710938 2.9248 3.67676 5.28125 6.70312 5.32129l29.1201 0.0205078c6.30762 -0.0605469 11.752 -0.446289 16.4648 -1.2998
c4.63086 -0.873047 8.68359 -2.34668 12.1172 -4.44922c3.29004 -2.08203 5.94141 -4.85449 7.61719 -8.2168zM61.6934 210.846c4.19434 3.08789 6.3584 7.44531 6.27637 13.1133c0.0205078 3.72754 -1.33008 6.54102 -4.02148 8.30859
c-2.72266 1.78711 -6.79492 2.71094 -12.1279 2.71094l-4.57031 -0.0302734c-2.99609 0.0205078 -6.05371 -2.38672 -6.64258 -5.29102l-4.19531 -18.1201c-0.660156 -2.92578 1.19922 -5.32227 4.23633 -5.32227h3.41211c7.55664 0 13.417 1.54395 17.6328 4.63086z
M488.436 245.745l0.874023 0.264648h0.12207v-2.04199l-1.41211 -0.274414l-1.33105 -0.111328l-3.16895 1.1377l-1.07617 3.5752v7.22168h-1.56445v1.91895h1.56445v3.87012h2.30566v-3.87012h4.66211v-1.91895h-4.66211v-6.20605l0.0205078 -1.67578l0.334961 -1.11719
l0.731445 -0.710938l1.43164 -0.223633zM510.934 256.451l1.06641 -3.78906v-8.80566h-2.27539v7.74902l-0.152344 1.65625l-0.28418 1.30957l-0.8125 0.782227l-1.49316 0.274414l-1.90918 -0.477539l-1.92969 -1.22852l0.0400391 -0.660156l0.0410156 -0.72168v-8.67383
h-2.26562v7.75l-0.111328 1.67578l-0.334961 1.2998l-0.761719 0.782227l-1.54395 0.274414l-1.88965 -0.467773l-1.89941 -1.17773v-10.127h-2.25488v13.5596h2.26562v-1.50293l2.14258 1.38184l2.26562 0.49707l2.35645 -0.558594l1.45215 -1.61523l2.49902 1.68652
l2.45801 0.498047zM159.017 226.528c5.27148 -2.95508 7.96289 -7.57715 7.92285 -13.8135l-0.244141 -3.36133l-0.52832 -3.58594l-10.167 -44.0098c-0.609375 -2.66113 -3.21973 -4.89551 -6.00293 -5.2207l-0.182617 -0.0810547h-2.01074h-10.6953h-0.244141
l-0.0507812 0.0605469c-2.65039 0.264648 -4.2959 2.49902 -3.72754 5.2207v0.0205078l0.0302734 0.0917969l0.52832 2.23438l-0.0712891 0.101562l-5.26074 -3.47363l-5.71875 -3.16895l-6.75391 -2.32617c-2.07227 -0.498047 -4.9873 -0.791992 -8.75586 -0.8125
c-5.95117 0 -10.9287 1.64551 -14.6963 5.01758c-3.74805 3.43262 -5.67773 7.87109 -5.67773 13.2441c0 5.70801 1.33008 10.5732 3.99121 14.5859c2.75293 3.99121 6.69336 7.12988 12.0059 9.46582c4.94629 2.26465 10.8984 3.9209 17.6826 4.86523
c6.9375 1.00586 12.6562 1.7373 20.5684 2.23438l2.01074 1.23926l0.244141 1.9707c0 3.02637 -1.40234 5.11914 -4.20508 6.33789c-2.84375 1.19824 -7.11035 1.78711 -12.6865 1.78711c-3.77832 0.0507812 -8.54199 -0.720703 -13.0615 -1.74707
c-4.7334 -1.05566 -6.02344 -1.7666 -8.33887 -2.45801c-1.07617 -0.375 -3.65625 -0.547852 -2.69141 3.93164l1.70605 7.01758s0.833008 5.29199 6.13477 6.4502c2.57031 0.558594 2.97656 0.680664 7.15039 1.32031c5.65723 0.873047 11.2539 1.31055 16.8711 1.31055
c11.3555 0 19.6641 -1.4834 24.9248 -4.44922zM136.529 177.044c0.853516 3.37207 2.64062 10.8477 2.83398 11.8125l-0.964844 1.69629c-0.823242 -0.0205078 -7.12012 -0.741211 -10.3096 -1.1377c-3.5752 -0.498047 -6.66309 -1.21875 -9.19238 -2.07227
l-5.91113 -4.02148c-1.3916 -1.72656 -2.04102 -3.97168 -2.04102 -6.80566l2.69141 -5.23047c1.81836 -1.01562 4.50977 -1.51367 7.94238 -1.51367c2.26562 0 4.71289 0.52832 7.29297 1.57422l5.48438 2.83398zM412.31 226.468
c5.3125 -2.95605 7.97363 -7.55664 7.96289 -13.7734l-0.293945 -3.37207l-0.538086 -3.60547l-10.1982 -43.9492c-0.579102 -2.69141 -3.17871 -4.92578 -5.93164 -5.26074l-0.212891 -0.0712891h-1.9707h-10.7256h-0.244141l-0.0195312 0.0507812
c-2.68164 0.244141 -4.33691 2.49902 -3.70801 5.2207l-0.0195312 0.0410156l0.0507812 0.0400391l0.476562 2.25488l-0.0908203 0.112305l-5.2207 -3.51465l-5.76953 -3.16895l-6.7334 -2.2959c-2.08301 -0.538086 -4.99805 -0.782227 -8.74512 -0.822266
c-5.95215 0 -10.8789 1.68555 -14.667 5.04785c-3.79883 3.41309 -5.70801 7.85156 -5.70801 13.2646c0 5.65723 1.31055 10.5127 4.00195 14.5244c2.72168 4.00195 6.71387 7.14062 12.0049 9.4873c4.95703 2.27441 10.9287 3.91992 17.6934 4.86426
c6.86621 1.00586 12.5947 1.7373 20.5879 2.21484l1.99121 1.26953l0.212891 1.95996c0 2.99609 -1.38086 5.10938 -4.2041 6.32812c-2.83398 1.19824 -7.10059 1.79785 -12.6562 1.79785c-3.78809 0.0205078 -8.59277 -0.731445 -13.0918 -1.74707
c-4.69238 -1.09668 -5.94238 -1.77734 -8.26758 -2.46875c-1.17871 -0.344727 -3.69727 -0.547852 -2.74316 3.93164l1.70703 7.00781s0.822266 5.3125 6.11426 6.45996c2.58008 0.547852 2.99609 0.680664 7.18066 1.29004c5.6377 0.90332 11.2441 1.34082 16.8604 1.34082
c11.3252 0 19.624 -1.49316 24.915 -4.45898zM389.873 176.983c0.833008 3.3916 2.63086 10.8369 2.77344 11.8018l-0.985352 1.69629c-0.8125 -0.00976562 -7.08984 -0.751953 -10.2588 -1.14746c-3.5957 -0.518555 -6.68359 -1.20898 -9.18164 -2.0625
c-2.55957 -0.995117 -4.62207 -2.35547 -5.97266 -4.01172c-1.33008 -1.75684 -1.99023 -3.98145 -1.99023 -6.8252l2.72168 -5.21094c1.76758 -1.01562 4.3877 -1.52344 7.93262 -1.52344c2.22461 0 4.68262 0.539062 7.26172 1.57422l5.43457 2.81348zM345.021 238.412
c1.7666 -3.32129 2.63086 -7.53613 2.68164 -12.5234c0 -11.4473 -4.76367 -20.6592 -14.1797 -27.6982c-9.52734 -6.95703 -22.7617 -10.4717 -39.835 -10.4717h-3.99219c-3.0166 0.0205078 -6.0127 -2.40723 -6.70312 -5.29199l-4.72363 -20.7295
c-0.700195 -2.92578 -3.7373 -5.30273 -6.70312 -5.28223l-13.9658 -0.0205078c-2.96582 0 -4.91602 2.39746 -4.20508 5.29199l19.6133 85.3789c0.701172 2.89453 3.61621 5.25098 6.65234 5.30176l29.1611 0.0205078
c6.2666 -0.00976562 11.7822 -0.457031 16.4033 -1.2793c4.70215 -0.853516 8.72461 -2.33594 12.1172 -4.44922c3.31055 -2.13281 5.93164 -4.86523 7.67871 -8.24707zM314.945 210.49c4.18457 3.1084 6.28711 7.47559 6.25684 13.1436
c-0.0302734 3.71777 -1.32031 6.52051 -4.05273 8.30859c-2.74219 1.78711 -6.76465 2.6709 -12.127 2.70117l-4.51953 -0.0302734c-3.0166 0.0302734 -6.04395 -2.39648 -6.66309 -5.29199l-4.22559 -18.0889c-0.669922 -2.90527 1.26953 -5.34277 4.26562 -5.3125h3.47363
c7.5166 0 13.3867 1.54395 17.5918 4.57031zM460.413 251.626c2.99609 0.0410156 4.82422 -2.32617 4.18457 -5.24121l0.0410156 -0.00976562l-18.6689 -84.6172l-0.669922 -1.01562c-1.08691 -2.37695 -3.47363 -4.30664 -6.0127 -4.30664h-12.9707l-0.213867 0.294922
c-2.47754 0.375 -4.08301 2.3457 -3.50391 4.95605l-0.0205078 0.0615234l0.569336 2.4375l17.46 79.3662l0.628906 2.7627l0.691406 1.07617c1.12695 2.33594 3.43262 4.23535 5.99219 4.23535h12.4932zM253.78 229.911c4.9668 0.111328 -0.375 -7.92285 -0.375 -7.91309
l-55.5586 -93.9717c-1.78809 -2.93457 -5.73828 -5.30176 -8.74512 -5.30176l-14.4434 -0.0205078c-2.99609 0 -3.98145 2.3877 -2.15332 5.3125l12.3506 21.5127s0.996094 1.24902 0.112305 8.25684c-1.89941 12.707 -11.3857 66.6904 -11.3857 66.6904
c-0.680664 2.92578 1.16797 5.32227 4.17383 5.32227l12.4932 0.0205078c3.8291 0 6.90723 -2.51855 7.59766 -5.46484l6.21582 -37.4482l2.31543 -0.0302734c1.94043 3.44336 21.9092 37.7129 21.9092 37.7129c1.90918 2.89453 5.76855 5.32227 8.77539 5.32227
c0 0 13.417 -0.0410156 16.7178 0z" />
    <glyph glyph-name="uniF112" unicode="&#xf112;" 
d="M341.92 389.416c69.5732 -69.5898 77.0234 -177.902 22.6885 -255.975c7.77246 -1.64258 15.2051 -5.41797 21.2158 -11.4121l113.748 -113.781c16.5596 -16.5088 16.5596 -43.2949 0 -59.8535c-16.4922 -16.543 -43.2773 -16.543 -59.8545 0l-113.747 113.747
c-6.04492 6.04492 -9.80371 13.4609 -11.4463 21.2324c-78.0557 -54.2998 -186.385 -46.8496 -255.94 22.6885c-78.0898 78.123 -78.0898 205.23 0 283.354c78.1064 78.1064 205.23 78.1064 283.336 0zM306.008 141.975c58.3135 58.3135 58.3135 153.199 0 211.513
c-58.3125 58.2959 -153.216 58.2959 -211.512 0c-58.2793 -58.3135 -58.2793 -153.199 0 -211.513c58.2959 -58.3125 153.199 -58.3125 211.512 0z" />
    <glyph glyph-name="uniF115" unicode="&#xf115;" 
d="M256 -64c-99.4053 0 -180.274 82.1396 -180.274 183.099v145.808c0 100.959 80.8691 183.094 180.274 183.094c99.3994 0 180.274 -81.8857 180.274 -182.534v-146.367c0 -100.959 -80.875 -183.099 -180.274 -183.099zM402.366 265.466
c0 81.9541 -65.6562 148.627 -146.366 148.627c-80.7051 0 -146.366 -66.9268 -146.366 -149.191v-145.803c0 -82.2646 65.6611 -149.191 146.366 -149.191c80.7109 0 146.366 66.9268 146.366 149.191v146.367zM256 76.1504c-9.36426 0 -16.9541 7.58984 -16.9541 16.9531
v59.3389c0 9.36328 7.58984 16.9541 16.9541 16.9541s16.9541 -7.59082 16.9541 -16.9541v-59.3389c0 -9.36328 -7.58984 -16.9531 -16.9541 -16.9531z" />
    <glyph glyph-name="uniF108" unicode="&#xf108;" 
d="M295.462 280.236h79.8398l-9.32129 -88.2354h-70.5195v-255.999h-105.946v256h-52.8193v88.2354h52.8223v53.125c0 37.6982 8.9043 66.2256 26.7158 85.5928c17.8135 19.3633 47.1211 29.0449 87.9277 29.0449h70.5234v-88.2295h-44.1133
c-8.08105 0 -14.5537 -0.671875 -19.4238 -2.02148c-4.86426 -1.34668 -8.38672 -3.77832 -10.5625 -7.2998c-2.17871 -3.52344 -3.58203 -7.09277 -4.19922 -10.7217c-0.619141 -3.62305 -0.923828 -8.75293 -0.923828 -15.376v-44.1152z" />
    <glyph glyph-name="uniF105" unicode="&#xf105;" 
d="M239.166 441.027c9.29785 9.29785 24.3701 9.29785 33.668 0l152.363 -152.358c4.64453 -4.64941 6.97266 -10.7422 6.97266 -16.835s-2.32812 -12.1865 -6.97266 -16.834c-9.29785 -9.29785 -24.3711 -9.29785 -33.6689 0l-111.722 111.718v-406.911
c0 -13.1465 -10.6611 -23.8066 -23.8066 -23.8066c-13.1475 0 -23.8066 10.6602 -23.8066 23.8066v406.911l-111.722 -111.722c-9.29785 -9.29785 -24.3711 -9.29785 -33.6689 0c-9.2959 9.2959 -9.2959 24.3721 0 33.6689z" />
    <glyph glyph-name="uniF106" unicode="&#xf106;" 
d="M352 448c88.3516 0 160 -71.6484 160 -160v-192c0 -88.3516 -71.6484 -160 -160 -160h-192c-88.3516 0 -160 71.6484 -160 160v192c0 88.3516 71.6484 160 160 160h192zM464 96v192c0 61.7598 -50.2402 112 -112 112h-192c-61.7598 0 -112 -50.2402 -112 -112v-192
c0 -61.7598 50.2402 -112 112 -112h192c61.7598 0 112 50.2402 112 112zM256 320c70.6885 0 128 -57.3115 128 -128s-57.3115 -128 -128 -128s-128 57.3115 -128 128s57.3115 128 128 128zM256 112c44.0957 0 80 35.9043 80 80c0 44.1279 -35.9043 80 -80 80
s-80 -35.8721 -80 -80c0 -44.0957 35.9043 -80 80 -80zM376.544 329.6c0 9.41992 7.63672 17.0566 17.0557 17.0566c9.41992 0 17.0566 -7.63672 17.0566 -17.0566c0 -9.41895 -7.63672 -17.0557 -17.0566 -17.0557c-9.41895 0 -17.0557 7.63672 -17.0557 17.0557z" />
    <glyph glyph-name="uniF114" unicode="&#xf114;" 
d="M460.546 4.25293v-1.16602c0 -36.9883 -34.0205 -67.0869 -75.7773 -67.0869h-257.537c-41.7568 0 -75.7773 30.0986 -75.7773 67.0869v1.16602l29.4629 332.042c0.636719 6.57031 6.14746 11.5518 12.7188 11.5518h62.1055
c0.105469 55.2168 45.042 100.153 100.259 100.153s100.153 -44.9365 100.259 -100.153h62.1055c6.67773 0 12.1885 -4.98145 12.7188 -11.5518zM256 422.564c-41.2275 0 -74.7178 -33.4902 -74.8232 -74.7178h149.646c-0.105469 41.2275 -33.5957 74.7178 -74.8232 74.7178
zM384.769 -38.458c27.5557 0 50.0234 18.335 50.3418 41.0146l-28.4033 319.854h-50.4482v-44.6182c0 -6.99512 -5.72266 -12.7178 -12.7178 -12.7178c-6.99414 0 -12.7178 5.72266 -12.7178 12.7178v44.6182h-149.646v-44.6182
c0 -6.99512 -5.72363 -12.7178 -12.7178 -12.7178c-6.99512 0 -12.7178 5.72266 -12.7178 12.7178v44.6182h-50.4482l-28.4033 -319.748c0.318359 -22.7861 22.7861 -41.1211 50.3418 -41.1211h257.537z" />
    <glyph glyph-name="uniF10E" unicode="&#xf10e;" 
d="M344.774 366.591l161.812 -161.827c7.21875 -6.95898 7.21875 -18.5684 0 -25.543l-161.812 -161.812c-6.95801 -7.21875 -18.584 -7.21875 -25.8027 0c-6.97559 6.95898 -6.97559 18.584 0 25.8037l130.837 130.593h-431.745
c-10.0645 0 -18.0635 8.25977 -18.0635 18.3242s7.99902 18.0645 18.0635 18.0801h431.745l-130.837 130.838c-6.97559 6.95898 -6.97559 18.5674 0 25.543c7.21875 7.21875 18.8281 7.21875 25.8027 0z" />
    <glyph glyph-name="uniF104" unicode="&#xf104;" 
d="M205.008 268.178h41.6367l-26.042 -152.698h-41.6152zM144.093 268.007l44.0889 0.0322266l-65.5391 -152.41l-44.0352 -0.0742188l-37.2695 127.342c26.791 -17.1475 49.6113 -44.3564 57.6494 -63.3018l4.3457 -15.7236zM97.2217 189.624
c-13.7861 35.29 -47.0107 64.6396 -97.2217 76.8203l0.535156 3.06152h64.5215c8.70215 -0.332031 15.7129 -3.10449 18.1328 -12.4062zM330.52 206.824c24.0508 -10.8643 35.1504 -24.1045 34.9688 -41.4551c-0.299805 -31.7148 -28.7285 -52.1807 -72.4746 -52.1807
c-18.6572 0.193359 -36.6279 3.86426 -46.3691 8.13477l5.85547 34.1768l5.3623 -2.44043c13.6689 -5.69434 22.5205 -7.99512 39.1865 -7.99512c11.9561 0 24.7578 4.68848 24.8857 14.9102c0.0751953 6.68945 -5.3623 11.4531 -21.5781 18.9453
c-15.7988 7.31055 -36.7139 19.5557 -36.4463 41.4873c0.224609 29.6816 29.21 50.3936 70.334 50.3936c16.1191 0 29.0391 -3.31836 37.2803 -6.41211l-5.62988 -33.0957l-3.75684 1.7666c-7.66406 3.08203 -17.5322 6.05762 -31.1475 5.84375
c-16.291 0 -23.8477 -6.78613 -23.8477 -13.1328c-0.0859375 -7.15039 8.81934 -11.8604 23.377 -18.9463zM478.326 268.018l33.6738 -152.613h-38.6084s-3.83203 17.5439 -5.07324 22.874c-6.04785 0 -48.5088 0.0644531 -53.2939 0.0644531
c-1.61621 -4.12109 -8.74512 -22.9385 -8.74512 -22.9385h-43.7031l61.793 139.94c4.38867 9.9541 11.8164 12.6729 21.8027 12.6729h32.1543zM427.002 169.587h34.5732c-1.66992 7.63086 -9.64453 44.0879 -9.64453 44.0879l-2.80371 13.166
c-2.15137 -5.74805 -5.76953 -14.9961 -5.54492 -14.5791c0 0 -13.1553 -33.9092 -16.5801 -42.6748z" />
  </font>
</defs></svg>
